ISO-10303-21;
HEADER;
FILE_DESCRIPTION(('STEP AP214'),'1');
FILE_NAME('CAP_5 X 11_NCH','2022-03-30T18:09:58',(''),(''),'','','');
FILE_SCHEMA(('AUTOMOTIVE_DESIGN'));
ENDSEC;
DATA;
#1=SHAPE_DEFINITION_REPRESENTATION(#2,#3);
#2=PRODUCT_DEFINITION_SHAPE('',$,#4);
#3=SHAPE_REPRESENTATION('',(#71,#126,#181,#237,#19),#11);
#4=PRODUCT_DEFINITION('design','example product_definition',#6,#5);
#5=PRODUCT_DEFINITION_CONTEXT('3D Mechanical Parts',#10,'design');
#6=PRODUCT_DEFINITION_FORMATION('1.0','first version',#8);
#7=APPLICATION_PROTOCOL_DEFINITION('international standard','automotive_design',2003,#10);
#8=PRODUCT('product','part','',(#9));
#9=PRODUCT_CONTEXT('3D Mechanical Parts',#10,'mechanical');
#10=APPLICATION_CONTEXT('Core Data for Automotive Mechanical Design Process');
#11=(GEOMETRIC_REPRESENTATION_CONTEXT(3) GLOBAL_UNCERTAINTY_ASSIGNED_CONTEXT((#12)) GLOBAL_UNIT_ASSIGNED_CONTEXT((#13,#14,#18)) REPRESENTATION_CONTEXT('ID1','3D'));
#12=UNCERTAINTY_MEASURE_WITH_UNIT(LENGTH_MEASURE(1.E-005),#13,'DISTANCE_ACCURACY_VALUE','Maximum model space distance between geometric entities at asserted connectivities');
#13=(LENGTH_UNIT() NAMED_UNIT(*) SI_UNIT(.MILLI.,.METRE.));
#14=(CONVERSION_BASED_UNIT('degree',#16) NAMED_UNIT(#15) PLANE_ANGLE_UNIT());
#15=DIMENSIONAL_EXPONENTS(0.,0.,0.,0.,0.,0.,0.);
#16=MEASURE_WITH_UNIT(PLANE_ANGLE_MEASURE(0.01745329252),#17);
#17=(NAMED_UNIT(*) PLANE_ANGLE_UNIT() SI_UNIT($,.RADIAN.));
#18=(NAMED_UNIT(*) SI_UNIT($,.STERADIAN.) SOLID_ANGLE_UNIT());
#19=AXIS2_PLACEMENT_3D('',#20,#21,#22);
#20=CARTESIAN_POINT('',(0.0,0.0,0.0));
#21=DIRECTION('',(0.0,0.0,1.0));
#22=DIRECTION('',(1.0,0.0,0.0));
#25=MECHANICAL_DESIGN_GEOMETRIC_PRESENTATION_REPRESENTATION($,(#123,#124,#125,#178,#179,#180,#233,#234,#235,#239,#308,#377,#426,#479,#532,#585,#637),#11);
#26=PRODUCT_CATEGORY_RELATIONSHIP('','',#27,#28);
#27=PRODUCT_CATEGORY('part','');
#28=PRODUCT_RELATED_PRODUCT_CATEGORY('','',(#8));
#34=PRESENTATION_STYLE_ASSIGNMENT((#35,#40));
#35=SURFACE_STYLE_USAGE(.BOTH.,#36);
#36=SURFACE_SIDE_STYLE('',(#37));
#37=SURFACE_STYLE_FILL_AREA(#38);
#38=FILL_AREA_STYLE('',(#39));
#39=FILL_AREA_STYLE_COLOUR('',#41);
#40=CURVE_STYLE('',#42,POSITIVE_LENGTH_MEASURE(0.1),#41);
#41=COLOUR_RGB('Aluminum',0.725,0.725,0.725);
#42=DRAUGHTING_PRE_DEFINED_CURVE_FONT('continuous');
#43=PRESENTATION_STYLE_ASSIGNMENT((#44,#49));
#44=SURFACE_STYLE_USAGE(.BOTH.,#45);
#45=SURFACE_SIDE_STYLE('',(#46));
#46=SURFACE_STYLE_FILL_AREA(#47);
#47=FILL_AREA_STYLE('',(#48));
#48=FILL_AREA_STYLE_COLOUR('',#50);
#49=CURVE_STYLE('',#51,POSITIVE_LENGTH_MEASURE(0.1),#50);
#50=COLOUR_RGB('Black',0.196,0.196,0.196);
#51=DRAUGHTING_PRE_DEFINED_CURVE_FONT('continuous');
#52=PRESENTATION_STYLE_ASSIGNMENT((#53,#58));
#53=SURFACE_STYLE_USAGE(.BOTH.,#54);
#54=SURFACE_SIDE_STYLE('',(#55));
#55=SURFACE_STYLE_FILL_AREA(#56);
#56=FILL_AREA_STYLE('',(#57));
#57=FILL_AREA_STYLE_COLOUR('',#59);
#58=CURVE_STYLE('',#60,POSITIVE_LENGTH_MEASURE(0.1),#59);
#59=COLOUR_RGB('Pin1Rad',0.588,0.588,0.588);
#60=DRAUGHTING_PRE_DEFINED_CURVE_FONT('continuous');
#61=PRESENTATION_STYLE_ASSIGNMENT((#62,#67));
#62=SURFACE_STYLE_USAGE(.BOTH.,#63);
#63=SURFACE_SIDE_STYLE('',(#64));
#64=SURFACE_STYLE_FILL_AREA(#65);
#65=FILL_AREA_STYLE('',(#66));
#66=FILL_AREA_STYLE_COLOUR('',#68);
#67=CURVE_STYLE('',#69,POSITIVE_LENGTH_MEASURE(0.1),#68);
#68=COLOUR_RGB('HeatTab',0.588,0.588,0.588);
#69=DRAUGHTING_PRE_DEFINED_CURVE_FONT('continuous');
#71=MANIFOLD_SOLID_BREP($,#72);
#72=CLOSED_SHELL('',(#73,#74,#75));
#73=ADVANCED_FACE($,(#79,#78),#96,.T.);
#74=ADVANCED_FACE($,(#80),#76,.F.);
#75=ADVANCED_FACE($,(#81),#77,.T.);
#76=PLANE($,#101);
#77=PLANE($,#102);
#78=FACE_BOUND($,#83,.T.);
#79=FACE_OUTER_BOUND($,#82,.T.);
#80=FACE_OUTER_BOUND($,#84,.T.);
#81=FACE_OUTER_BOUND($,#85,.T.);
#82=EDGE_LOOP($,(#92));
#83=EDGE_LOOP($,(#93));
#84=EDGE_LOOP($,(#94));
#85=EDGE_LOOP($,(#95));
#86=CIRCLE($,#99,0.254);
#87=CIRCLE($,#100,0.254);
#88=VERTEX_POINT('',#117);
#89=VERTEX_POINT('',#119);
#90=EDGE_CURVE($,#88,#88,#86,.T.);
#91=EDGE_CURVE($,#89,#89,#87,.T.);
#92=ORIENTED_EDGE($,*,*,#90,.F.);
#93=ORIENTED_EDGE($,*,*,#91,.F.);
#94=ORIENTED_EDGE($,*,*,#91,.T.);
#95=ORIENTED_EDGE($,*,*,#90,.T.);
#96=CYLINDRICAL_SURFACE($,#98,0.254);
#97=AXIS2_PLACEMENT_3D('placement',#115,#103,#104);
#98=AXIS2_PLACEMENT_3D($,#116,#105,#106);
#99=AXIS2_PLACEMENT_3D($,#118,#107,#108);
#100=AXIS2_PLACEMENT_3D($,#120,#109,#110);
#101=AXIS2_PLACEMENT_3D($,#121,#111,#112);
#102=AXIS2_PLACEMENT_3D($,#122,#113,#114);
#103=DIRECTION('axis',(0.,1.,0.));
#104=DIRECTION('refdir',(1.,0.,0.));
#105=DIRECTION('',(0.,0.,1.));
#106=DIRECTION('',(1.,0.,0.));
#107=DIRECTION('',(0.,0.,1.));
#108=DIRECTION('',(1.,0.,0.));
#109=DIRECTION('',(0.,0.,-1.));
#110=DIRECTION('',(1.,0.,0.));
#111=DIRECTION('',(0.,0.,1.));
#112=DIRECTION('',(0.,1.,0.));
#113=DIRECTION('',(0.,0.,1.));
#114=DIRECTION('',(0.,1.,0.));
#115=CARTESIAN_POINT('',(0.,0.,0.));
#116=CARTESIAN_POINT('',(2.489,0.0,-4.064));
#117=CARTESIAN_POINT('',(2.235,0.0,0.0));
#118=CARTESIAN_POINT('',(2.489,0.0,0.0));
#119=CARTESIAN_POINT('',(2.235,0.0,-4.064));
#120=CARTESIAN_POINT('',(2.489,0.0,-4.064));
#121=CARTESIAN_POINT('',(2.489,0.0,-4.064));
#122=CARTESIAN_POINT('',(2.489,0.0,0.0));
#123=STYLED_ITEM('color',(#34),#73);
#124=STYLED_ITEM('color',(#34),#74);
#125=STYLED_ITEM('color',(#34),#75);
#126=MANIFOLD_SOLID_BREP($,#127);
#127=CLOSED_SHELL('',(#128,#129,#130));
#128=ADVANCED_FACE($,(#134,#133),#151,.T.);
#129=ADVANCED_FACE($,(#135),#131,.F.);
#130=ADVANCED_FACE($,(#136),#132,.T.);
#131=PLANE($,#156);
#132=PLANE($,#157);
#133=FACE_BOUND($,#138,.T.);
#134=FACE_OUTER_BOUND($,#137,.T.);
#135=FACE_OUTER_BOUND($,#139,.T.);
#136=FACE_OUTER_BOUND($,#140,.T.);
#137=EDGE_LOOP($,(#147));
#138=EDGE_LOOP($,(#148));
#139=EDGE_LOOP($,(#149));
#140=EDGE_LOOP($,(#150));
#141=CIRCLE($,#154,0.254);
#142=CIRCLE($,#155,0.254);
#143=VERTEX_POINT('',#172);
#144=VERTEX_POINT('',#174);
#145=EDGE_CURVE($,#143,#143,#141,.T.);
#146=EDGE_CURVE($,#144,#144,#142,.T.);
#147=ORIENTED_EDGE($,*,*,#145,.F.);
#148=ORIENTED_EDGE($,*,*,#146,.F.);
#149=ORIENTED_EDGE($,*,*,#146,.T.);
#150=ORIENTED_EDGE($,*,*,#145,.T.);
#151=CYLINDRICAL_SURFACE($,#153,0.254);
#152=AXIS2_PLACEMENT_3D('placement',#170,#158,#159);
#153=AXIS2_PLACEMENT_3D($,#171,#160,#161);
#154=AXIS2_PLACEMENT_3D($,#173,#162,#163);
#155=AXIS2_PLACEMENT_3D($,#175,#164,#165);
#156=AXIS2_PLACEMENT_3D($,#176,#166,#167);
#157=AXIS2_PLACEMENT_3D($,#177,#168,#169);
#158=DIRECTION('axis',(0.,1.,0.));
#159=DIRECTION('refdir',(1.,0.,0.));
#160=DIRECTION('',(0.,0.,1.));
#161=DIRECTION('',(1.,0.,0.));
#162=DIRECTION('',(0.,0.,1.));
#163=DIRECTION('',(1.,0.,0.));
#164=DIRECTION('',(0.,0.,-1.));
#165=DIRECTION('',(1.,0.,0.));
#166=DIRECTION('',(0.,0.,1.));
#167=DIRECTION('',(0.,1.,0.));
#168=DIRECTION('',(0.,0.,1.));
#169=DIRECTION('',(0.,1.,0.));
#170=CARTESIAN_POINT('',(0.,0.,0.));
#171=CARTESIAN_POINT('',(0.0,0.0,-4.064));
#172=CARTESIAN_POINT('',(-0.254,0.0,0.0));
#173=CARTESIAN_POINT('',(0.0,0.0,0.0));
#174=CARTESIAN_POINT('',(-0.254,0.0,-4.064));
#175=CARTESIAN_POINT('',(0.0,0.0,-4.064));
#176=CARTESIAN_POINT('',(0.0,0.0,-4.064));
#177=CARTESIAN_POINT('',(0.0,0.0,0.0));
#178=STYLED_ITEM('color',(#34),#128);
#179=STYLED_ITEM('color',(#34),#129);
#180=STYLED_ITEM('color',(#34),#130);
#181=MANIFOLD_SOLID_BREP($,#182);
#182=CLOSED_SHELL('',(#183,#184,#185));
#183=ADVANCED_FACE($,(#189,#188),#206,.T.);
#184=ADVANCED_FACE($,(#190),#186,.F.);
#185=ADVANCED_FACE($,(#191),#187,.T.);
#186=PLANE($,#211);
#187=PLANE($,#212);
#188=FACE_BOUND($,#193,.T.);
#189=FACE_OUTER_BOUND($,#192,.T.);
#190=FACE_OUTER_BOUND($,#194,.T.);
#191=FACE_OUTER_BOUND($,#195,.T.);
#192=EDGE_LOOP($,(#202));
#193=EDGE_LOOP($,(#203));
#194=EDGE_LOOP($,(#204));
#195=EDGE_LOOP($,(#205));
#196=CIRCLE($,#209,2.4892);
#197=CIRCLE($,#210,2.4892);
#198=VERTEX_POINT('',#227);
#199=VERTEX_POINT('',#229);
#200=EDGE_CURVE($,#198,#198,#196,.T.);
#201=EDGE_CURVE($,#199,#199,#197,.T.);
#202=ORIENTED_EDGE($,*,*,#200,.F.);
#203=ORIENTED_EDGE($,*,*,#201,.F.);
#204=ORIENTED_EDGE($,*,*,#201,.T.);
#205=ORIENTED_EDGE($,*,*,#200,.T.);
#206=CYLINDRICAL_SURFACE($,#208,2.4892);
#207=AXIS2_PLACEMENT_3D('placement',#225,#213,#214);
#208=AXIS2_PLACEMENT_3D($,#226,#215,#216);
#209=AXIS2_PLACEMENT_3D($,#228,#217,#218);
#210=AXIS2_PLACEMENT_3D($,#230,#219,#220);
#211=AXIS2_PLACEMENT_3D($,#231,#221,#222);
#212=AXIS2_PLACEMENT_3D($,#232,#223,#224);
#213=DIRECTION('axis',(0.,1.,0.));
#214=DIRECTION('refdir',(1.,0.,0.));
#215=DIRECTION('',(0.,0.,1.));
#216=DIRECTION('',(1.,0.,0.));
#217=DIRECTION('',(0.,0.,1.));
#218=DIRECTION('',(1.,0.,0.));
#219=DIRECTION('',(0.,0.,-1.));
#220=DIRECTION('',(1.,0.,0.));
#221=DIRECTION('',(0.,0.,1.));
#222=DIRECTION('',(0.,1.,0.));
#223=DIRECTION('',(0.,0.,1.));
#224=DIRECTION('',(0.,1.,0.));
#225=CARTESIAN_POINT('',(0.,0.,0.));
#226=CARTESIAN_POINT('',(1.245,0.0,0.0));
#227=CARTESIAN_POINT('',(-1.245,0.0,10.998));
#228=CARTESIAN_POINT('',(1.245,0.0,10.998));
#229=CARTESIAN_POINT('',(-1.245,0.0,0.0));
#230=CARTESIAN_POINT('',(1.245,0.0,0.0));
#231=CARTESIAN_POINT('',(1.245,0.0,0.0));
#232=CARTESIAN_POINT('',(1.245,0.0,10.998));
#233=STYLED_ITEM('color',(#43),#183);
#234=STYLED_ITEM('color',(#43),#184);
#235=STYLED_ITEM('color',(#43),#185);
#237=MANIFOLD_SOLID_BREP($,#238);
#238=CLOSED_SHELL('',(#240,#309,#378,#427,#480,#533,#586,#638));
#239=STYLED_ITEM('',(#52),#240);
#240=ADVANCED_FACE('',(#246),#241,.T.);
#241=PLANE('',#242);
#242=AXIS2_PLACEMENT_3D('',#243,#244,#245);
#243=CARTESIAN_POINT('',(3.722,0.486,2.19));
#244=DIRECTION('',(0.0,1.0,0.0));
#245=DIRECTION('',(0.,0.,1.));
#246=FACE_OUTER_BOUND('',#247,.T.);
#247=EDGE_LOOP('',(#248,#258,#268,#278,#288,#298));
#251=CARTESIAN_POINT('',(3.696,0.486,2.19));
#250=VERTEX_POINT('',#251);
#253=CARTESIAN_POINT('',(3.722,0.486,2.19));
#252=VERTEX_POINT('',#253);
#249=EDGE_CURVE('',#250,#252,#254,.T.);
#254=LINE('',#251,#256);
#256=VECTOR('',#257,2.53999995694739E-02);
#257=DIRECTION('',(1.0,0.0,0.0));
#248=ORIENTED_EDGE('',*,*,#249,.F.);
#261=CARTESIAN_POINT('',(3.696,0.486,10.988));
#260=VERTEX_POINT('',#261);
#259=EDGE_CURVE('',#260,#250,#264,.T.);
#264=LINE('',#261,#266);
#266=VECTOR('',#267,8.79856);
#267=DIRECTION('',(0.0,0.0,-1.0));
#258=ORIENTED_EDGE('',*,*,#259,.F.);
#271=CARTESIAN_POINT('',(1.753,0.486,10.988));
#270=VERTEX_POINT('',#271);
#269=EDGE_CURVE('',#270,#260,#274,.T.);
#274=LINE('',#271,#276);
#276=VECTOR('',#277,1.94353070977179);
#277=DIRECTION('',(1.0,0.0,0.0));
#268=ORIENTED_EDGE('',*,*,#269,.F.);
#281=CARTESIAN_POINT('',(1.753,0.486,11.014));
#280=VERTEX_POINT('',#281);
#279=EDGE_CURVE('',#280,#270,#284,.T.);
#284=LINE('',#281,#286);
#286=VECTOR('',#287,0.0254);
#287=DIRECTION('',(0.0,0.0,-1.0));
#278=ORIENTED_EDGE('',*,*,#279,.F.);
#291=CARTESIAN_POINT('',(3.722,0.486,11.014));
#290=VERTEX_POINT('',#291);
#289=EDGE_CURVE('',#290,#280,#294,.T.);
#294=LINE('',#291,#296);
#296=VECTOR('',#297,1.96893070934127);
#297=DIRECTION('',(-1.0,0.0,0.0));
#288=ORIENTED_EDGE('',*,*,#289,.F.);
#299=EDGE_CURVE('',#252,#290,#304,.T.);
#304=LINE('',#253,#306);
#306=VECTOR('',#307,8.82396);
#307=DIRECTION('',(0.0,0.0,1.0));
#298=ORIENTED_EDGE('',*,*,#299,.F.);
#308=STYLED_ITEM('',(#52),#309);
#309=ADVANCED_FACE('',(#315),#310,.T.);
#310=PLANE('',#311);
#311=AXIS2_PLACEMENT_3D('',#312,#313,#314);
#312=CARTESIAN_POINT('',(3.696,-0.486,2.19));
#313=DIRECTION('',(0.0,-1.0,0.0));
#314=DIRECTION('',(0.,0.,1.));
#315=FACE_OUTER_BOUND('',#316,.T.);
#316=EDGE_LOOP('',(#317,#327,#337,#347,#357,#367));
#320=CARTESIAN_POINT('',(3.722,-0.486,2.19));
#319=VERTEX_POINT('',#320);
#322=CARTESIAN_POINT('',(3.696,-0.486,2.19));
#321=VERTEX_POINT('',#322);
#318=EDGE_CURVE('',#319,#321,#323,.T.);
#323=LINE('',#320,#325);
#325=VECTOR('',#326,2.53999995694745E-02);
#326=DIRECTION('',(-1.0,0.0,0.0));
#317=ORIENTED_EDGE('',*,*,#318,.F.);
#330=CARTESIAN_POINT('',(3.722,-0.486,11.014));
#329=VERTEX_POINT('',#330);
#328=EDGE_CURVE('',#329,#319,#333,.T.);
#333=LINE('',#330,#335);
#335=VECTOR('',#336,8.82396);
#336=DIRECTION('',(0.0,0.0,-1.0));
#327=ORIENTED_EDGE('',*,*,#328,.F.);
#340=CARTESIAN_POINT('',(1.753,-0.486,11.014));
#339=VERTEX_POINT('',#340);
#338=EDGE_CURVE('',#339,#329,#343,.T.);
#343=LINE('',#340,#345);
#345=VECTOR('',#346,1.96893070934127);
#346=DIRECTION('',(1.0,0.0,0.0));
#337=ORIENTED_EDGE('',*,*,#338,.F.);
#350=CARTESIAN_POINT('',(1.753,-0.486,10.988));
#349=VERTEX_POINT('',#350);
#348=EDGE_CURVE('',#349,#339,#353,.T.);
#353=LINE('',#350,#355);
#355=VECTOR('',#356,0.0254);
#356=DIRECTION('',(0.0,0.0,1.0));
#347=ORIENTED_EDGE('',*,*,#348,.F.);
#360=CARTESIAN_POINT('',(3.696,-0.486,10.988));
#359=VERTEX_POINT('',#360);
#358=EDGE_CURVE('',#359,#349,#363,.T.);
#363=LINE('',#360,#365);
#365=VECTOR('',#366,1.94353070977179);
#366=DIRECTION('',(-1.0,0.0,0.0));
#357=ORIENTED_EDGE('',*,*,#358,.F.);
#368=EDGE_CURVE('',#321,#359,#373,.T.);
#373=LINE('',#322,#375);
#375=VECTOR('',#376,8.79856);
#376=DIRECTION('',(0.0,0.0,1.0));
#367=ORIENTED_EDGE('',*,*,#368,.F.);
#377=STYLED_ITEM('',(#52),#378);
#378=ADVANCED_FACE('',(#384),#379,.T.);
#379=PLANE('',#380);
#380=AXIS2_PLACEMENT_3D('',#381,#382,#383);
#381=CARTESIAN_POINT('',(1.753,0.486,10.988));
#382=DIRECTION('',(-1.0,0.0,0.0));
#383=DIRECTION('',(0.,0.,1.));
#384=FACE_OUTER_BOUND('',#385,.T.);
#385=EDGE_LOOP('',(#386,#396,#406,#416));
#387=EDGE_CURVE('',#349,#270,#392,.T.);
#392=LINE('',#350,#394);
#394=VECTOR('',#395,0.97123785632298);
#395=DIRECTION('',(0.0,1.0,0.0));
#386=ORIENTED_EDGE('',*,*,#387,.F.);
#396=ORIENTED_EDGE('',*,*,#348,.T.);
#407=EDGE_CURVE('',#280,#339,#412,.T.);
#412=LINE('',#281,#414);
#414=VECTOR('',#415,0.97123785632298);
#415=DIRECTION('',(0.0,-1.0,0.0));
#406=ORIENTED_EDGE('',*,*,#407,.F.);
#416=ORIENTED_EDGE('',*,*,#279,.T.);
#426=STYLED_ITEM('color',(#52),#427);
#427=ADVANCED_FACE($,(#433),#428,.T.);
#428=CYLINDRICAL_SURFACE($,#429,2.5146);
#429=AXIS2_PLACEMENT_3D($,#430,#431,#432);
#430=CARTESIAN_POINT('',(1.255,0.0,2.19));
#431=DIRECTION('',(0.,0.,1.));
#432=DIRECTION('',(-1.,0.,0.));
#433=FACE_OUTER_BOUND($,#434,.T.);
#434=EDGE_LOOP($,(#457, #435, #467, #446));
#457=ORIENTED_EDGE('',*,*,#328,.T.);
#436=EDGE_CURVE($,#252,#319,#441,.T.);
#441=CIRCLE($,#442,2.5146);
#443=CARTESIAN_POINT('',(1.255,0.0,2.19));
#442=AXIS2_PLACEMENT_3D($,#443,#444,#445);
#444=DIRECTION('',(0.0,0.0,-1.0));
#445=DIRECTION('',(1.0,0.0,0.0));
#435=ORIENTED_EDGE('',*,*,#436,.F.);
#467=ORIENTED_EDGE('',*,*,#299,.T.);
#447=EDGE_CURVE($,#329,#290,#452,.T.);
#452=CIRCLE($,#453,2.5146);
#454=CARTESIAN_POINT('',(1.255,0.0,11.014));
#453=AXIS2_PLACEMENT_3D($,#454,#455,#456);
#455=DIRECTION('',(0.0,0.0,1.0));
#456=DIRECTION('',(-1.0,0.0,0.0));
#446=ORIENTED_EDGE('',*,*,#447,.F.);
#479=STYLED_ITEM('color',(#52),#480);
#480=ADVANCED_FACE($,(#486),#481,.F.);
#481=CYLINDRICAL_SURFACE($,#482,2.4892);
#482=AXIS2_PLACEMENT_3D($,#483,#484,#485);
#483=CARTESIAN_POINT('',(1.255,0.0,2.19));
#484=DIRECTION('',(0.,0.,1.));
#485=DIRECTION('',(-1.,0.,0.));
#486=FACE_OUTER_BOUND($,#487,.T.);
#487=EDGE_LOOP($,(#510, #488, #520, #499));
#510=ORIENTED_EDGE('',*,*,#259,.T.);
#489=EDGE_CURVE($,#321,#250,#494,.T.);
#494=CIRCLE($,#495,2.4892);
#495=AXIS2_PLACEMENT_3D($,#443,#497,#498);
#497=DIRECTION('',(0.0,0.0,1.0));
#498=DIRECTION('',(-1.0,0.0,0.0));
#488=ORIENTED_EDGE('',*,*,#489,.F.);
#520=ORIENTED_EDGE('',*,*,#368,.T.);
#500=EDGE_CURVE($,#260,#359,#505,.T.);
#505=CIRCLE($,#506,2.4892);
#507=CARTESIAN_POINT('',(1.255,0.0,10.988));
#506=AXIS2_PLACEMENT_3D($,#507,#508,#509);
#508=DIRECTION('',(0.0,0.0,-1.0));
#509=DIRECTION('',(1.0,0.0,0.0));
#499=ORIENTED_EDGE('',*,*,#500,.F.);
#532=STYLED_ITEM('color',(#52),#533);
#533=ADVANCED_FACE($,(#539),#534,.T.);
#534=PLANE($,#535);
#535=AXIS2_PLACEMENT_3D($,#536,#537,#538);
#536=CARTESIAN_POINT('',(3.722,0.486,2.19));
#537=DIRECTION('',(0.0,0.0,-1.0));
#538=DIRECTION('',(1.,0.,0.));
#539=FACE_OUTER_BOUND($,#540,.T.);
#540=EDGE_LOOP($,(#543, #553, #564, #574));
#543=ORIENTED_EDGE('',*,*,#249,.T.);
#553=ORIENTED_EDGE('',*,*,#436,.T.);
#564=ORIENTED_EDGE('',*,*,#318,.T.);
#574=ORIENTED_EDGE('',*,*,#489,.T.);
#585=STYLED_ITEM('color',(#52),#586);
#586=ADVANCED_FACE($,(#592),#587,.T.);
#587=PLANE($,#588);
#588=AXIS2_PLACEMENT_3D($,#589,#590,#591);
#589=CARTESIAN_POINT('',(1.753,-0.486,10.988));
#590=DIRECTION('',(0.0,0.0,-1.0));
#591=DIRECTION('',(1.,0.,0.));
#592=FACE_OUTER_BOUND($,#593,.T.);
#593=EDGE_LOOP($,(#596, #606, #616, #626));
#596=ORIENTED_EDGE('',*,*,#358,.T.);
#606=ORIENTED_EDGE('',*,*,#387,.T.);
#616=ORIENTED_EDGE('',*,*,#269,.T.);
#626=ORIENTED_EDGE('',*,*,#500,.T.);
#637=STYLED_ITEM('color',(#52),#638);
#638=ADVANCED_FACE($,(#644),#639,.T.);
#639=PLANE($,#640);
#640=AXIS2_PLACEMENT_3D($,#641,#642,#643);
#641=CARTESIAN_POINT('',(1.753,0.486,11.014));
#642=DIRECTION('',(0.0,0.0,1.0));
#643=DIRECTION('',(1.,0.,0.));
#644=FACE_OUTER_BOUND($,#645,.T.);
#645=EDGE_LOOP($,(#648, #658, #668, #678));
#648=ORIENTED_EDGE('',*,*,#289,.T.);
#658=ORIENTED_EDGE('',*,*,#407,.T.);
#668=ORIENTED_EDGE('',*,*,#338,.T.);
#678=ORIENTED_EDGE('',*,*,#447,.T.);
ENDSEC;
END-ISO-10303-21;
