{
    "arcs": {},
    "can_expand": false,
    "junctions": {
        "09a672cf-e42b-464d-9f6a-e8f66b5e2f9f": {
            "position": [
                8750000,
                18750000
            ]
        },
        "642eae3f-5c9e-40c3-8ed1-4637f92b93ac": {
            "position": [
                -8750000,
                18750000
            ]
        },
        "6dd56a25-759e-4edb-a7d7-f36a67e40dd2": {
            "position": [
                8750000,
                -18750000
            ]
        },
        "ea0beaff-776e-46b2-be84-86756e38ac02": {
            "position": [
                -8750000,
                -18750000
            ]
        }
    },
    "lines": {
        "14878608-c50f-49aa-8db8-bf2bb5569d75": {
            "from": "6dd56a25-759e-4edb-a7d7-f36a67e40dd2",
            "layer": 0,
            "to": "ea0beaff-776e-46b2-be84-86756e38ac02",
            "width": 0
        },
        "8932c89f-f221-448c-9b2d-68ffd36a7411": {
            "from": "09a672cf-e42b-464d-9f6a-e8f66b5e2f9f",
            "layer": 0,
            "to": "6dd56a25-759e-4edb-a7d7-f36a67e40dd2",
            "width": 0
        },
        "9d8ba073-4b5d-4981-abde-333143090315": {
            "from": "642eae3f-5c9e-40c3-8ed1-4637f92b93ac",
            "layer": 0,
            "to": "09a672cf-e42b-464d-9f6a-e8f66b5e2f9f",
            "width": 0
        },
        "9ec18c41-b456-44ae-a842-8bae312ff503": {
            "from": "ea0beaff-776e-46b2-be84-86756e38ac02",
            "layer": 0,
            "to": "642eae3f-5c9e-40c3-8ed1-4637f92b93ac",
            "width": 0
        }
    },
    "name": "Generic SAIL",
    "pins": {
        "42a620be-eaaa-4ea4-b149-0eae0a6408ef": {
            "decoration": {
                "clock": false,
                "dot": false,
                "driver": "default",
                "schmitt": false
            },
            "length": 2500000,
            "name_orientation": "in_line",
            "name_visible": true,
            "orientation": "left",
            "pad_visible": true,
            "position": [
                -11250000,
                -6250000
            ]
        },
        "5708f590-a57c-4d5e-9a78-dff7483faf3e": {
            "decoration": {
                "clock": false,
                "dot": false,
                "driver": "default",
                "schmitt": false
            },
            "length": 2500000,
            "name_orientation": "in_line",
            "name_visible": true,
            "orientation": "left",
            "pad_visible": true,
            "position": [
                -11250000,
                6250000
            ]
        },
        "a8374130-8df0-4869-8794-8825b7e034b7": {
            "decoration": {
                "clock": false,
                "dot": false,
                "driver": "default",
                "schmitt": false
            },
            "length": 2500000,
            "name_orientation": "in_line",
            "name_visible": true,
            "orientation": "right",
            "pad_visible": true,
            "position": [
                11250000,
                15000000
            ]
        },
        "bb9d79fa-bbae-4083-a54d-d991447ca395": {
            "decoration": {
                "clock": false,
                "dot": false,
                "driver": "default",
                "schmitt": false
            },
            "length": 2500000,
            "name_orientation": "horizontal",
            "name_visible": true,
            "orientation": "up",
            "pad_visible": true,
            "position": [
                0,
                21250000
            ]
        },
        "c0632610-655c-45e9-b963-09b818d606f8": {
            "decoration": {
                "clock": false,
                "dot": false,
                "driver": "default",
                "schmitt": false
            },
            "length": 2500000,
            "name_orientation": "in_line",
            "name_visible": true,
            "orientation": "right",
            "pad_visible": true,
            "position": [
                11250000,
                5000000
            ]
        },
        "c270a8d2-cc48-4252-ae96-22bb58ccbc04": {
            "decoration": {
                "clock": false,
                "dot": false,
                "driver": "default",
                "schmitt": false
            },
            "length": 2500000,
            "name_orientation": "in_line",
            "name_visible": true,
            "orientation": "right",
            "pad_visible": true,
            "position": [
                11250000,
                -13750000
            ]
        },
        "df457e20-aad7-44d8-a7af-2f43101cbfdf": {
            "decoration": {
                "clock": false,
                "dot": false,
                "driver": "default",
                "schmitt": false
            },
            "length": 2500000,
            "name_orientation": "in_line",
            "name_visible": true,
            "orientation": "left",
            "pad_visible": true,
            "position": [
                -11250000,
                0
            ]
        },
        "e14db2e9-29a4-434d-b5ec-793a51ba6435": {
            "decoration": {
                "clock": false,
                "dot": false,
                "driver": "default",
                "schmitt": false
            },
            "length": 2500000,
            "name_orientation": "horizontal",
            "name_visible": true,
            "orientation": "down",
            "pad_visible": true,
            "position": [
                0,
                -21250000
            ]
        },
        "f6f291eb-17f6-44f2-a8f2-b1ef5a2847bc": {
            "decoration": {
                "clock": false,
                "dot": false,
                "driver": "default",
                "schmitt": false
            },
            "length": 2500000,
            "name_orientation": "in_line",
            "name_visible": true,
            "orientation": "right",
            "pad_visible": true,
            "position": [
                11250000,
                -3750000
            ]
        }
    },
    "polygons": {},
    "text_placements": {},
    "texts": {
        "2d9d86e1-7ed0-4d61-a14f-13ad0e941709": {
            "font": "simplex",
            "from_smash": false,
            "layer": 0,
            "origin": "center",
            "placement": {
                "angle": 0,
                "mirror": false,
                "shift": [
                    2500000,
                    20000000
                ]
            },
            "size": 1500000,
            "text": "$REFDES",
            "width": 0
        },
        "3f7332e3-0a12-4b79-bae0-fb8d016959ba": {
            "font": "simplex",
            "from_smash": false,
            "layer": 0,
            "origin": "center",
            "placement": {
                "angle": 0,
                "mirror": false,
                "shift": [
                    2500000,
                    -20000000
                ]
            },
            "size": 1500000,
            "text": "$VALUE",
            "width": 0
        }
    },
    "type": "symbol",
    "unit": "83b84aae-97c3-41c0-9572-bd8d8b23570e",
    "uuid": "150f1e24-c15a-4d87-b829-ad6348d14ba8"
}