{
    "MPN": [
        false,
        "CT3149-4"
    ],
    "datasheet": [
        false,
        "https://www.caltestelectronics.com/public/attachments/CT3149_drawing.pdf"
    ],
    "description": [
        false,
        "Yellow 4mm Sheathed Banana Jack (socket)"
    ],
    "entity": "267343bf-e6bf-42f4-b256-381dd96f011d",
    "inherit_model": false,
    "inherit_tags": false,
    "manufacturer": [
        false,
        "Cal Test Electronics"
    ],
    "model": "93b527bc-fc4f-445d-b60b-1e32d54f7e89",
    "orderable_MPNs": {
        "436c8216-7d28-44f6-bebc-15cdaf695716": "CT3149-4"
    },
    "package": "e5128787-19fa-4a4d-8b7a-bfac102333f1",
    "pad_map": {
        "e074bf06-3113-470f-a80d-0e4dc7bb3154": {
            "gate": "26c95be6-8813-4f4b-a0e6-574ae9a6ae48",
            "pin": "ad3f20fe-d1ca-40c1-9148-71c107694c90"
        }
    },
    "parametric": {},
    "tags": [
        "connector"
    ],
    "type": "part",
    "uuid": "bc706a31-1b46-4bc5-9ec8-cc98d3bf6efc",
    "value": [
        false,
        "4mm banana jack"
    ]
}