{
    "gates": {
        "22a7da5f-5b98-4021-947a-118b286e6791": {
            "name": "Main",
            "suffix": "",
            "swap_group": 0,
            "unit": "a4a0ad0d-537f-4710-a85c-a1027fcbe09b"
        }
    },
    "manufacturer": "",
    "name": "Transformer SAIL",
    "prefix": "U",
    "tags": [
        "transceiver"
    ],
    "type": "entity",
    "uuid": "74b4f00c-e859-4e87-87e3-939370efbdff"
}