{
    "MPN": [
        false,
        "LTC6993 Base"
    ],
    "datasheet": [
        false,
        "https://www.analog.com/media/en/technical-documentation/data-sheets/LTC6993-6993-1-6993-2-6993-3-6993-4.pdf"
    ],
    "description": [
        false,
        "BASE FOR MONOSTATIC MULTIVBRATOR"
    ],
    "entity": "1b6eee2a-270e-4150-9268-c9d5e609c14b",
    "flags": {
        "base_part": "set",
        "exclude_bom": "clear",
        "exclude_pnp": "clear"
    },
    "inherit_model": false,
    "inherit_tags": false,
    "manufacturer": [
        false,
        "Analog Devices"
    ],
    "model": "c1994deb-b83c-4d48-844c-ae8b6c6a93d1",
    "orderable_MPNs": {
        "f384beb0-7ca8-4ca3-8d89-bb45dc6dab09": ""
    },
    "package": "126d819d-876f-4519-af8e-65e998cde47e",
    "pad_map": {
        "31cd1aa5-e259-4128-ba4e-d22ab335fb44": {
            "gate": "40aa59bd-9e19-4452-8b7d-92f2494d6110",
            "pin": "7093b804-0ccb-4655-959b-b3f94e1b9f93"
        },
        "36ad4b59-9b54-4125-9646-02751337e1ad": {
            "gate": "40aa59bd-9e19-4452-8b7d-92f2494d6110",
            "pin": "f22f4758-d214-46a8-a466-ea8237ba3876"
        },
        "70588f92-d347-40fa-b714-1b4069fa6810": {
            "gate": "40aa59bd-9e19-4452-8b7d-92f2494d6110",
            "pin": "3d1ec777-6571-4d3a-af0e-c22295344835"
        },
        "97580033-0154-4bd1-a8fe-d22750b802fd": {
            "gate": "40aa59bd-9e19-4452-8b7d-92f2494d6110",
            "pin": "0984d414-e582-4566-b446-c442a6546767"
        },
        "b2135979-f0d3-4f95-8524-0bc0a40999f8": {
            "gate": "40aa59bd-9e19-4452-8b7d-92f2494d6110",
            "pin": "fc4f4697-a506-4121-a360-2328d7cc9871"
        },
        "f4eb6a3f-e594-494c-87ca-a2ae08a3bb84": {
            "gate": "40aa59bd-9e19-4452-8b7d-92f2494d6110",
            "pin": "7ab22e8e-85ca-40b7-8f71-3b35f14906fe"
        }
    },
    "parametric": {},
    "tags": [
        "ic",
        "logic"
    ],
    "type": "part",
    "uuid": "c6f955ab-d0ed-4b34-813d-ac6866789921",
    "value": [
        false,
        ""
    ],
    "version": 1
}