{
    "arcs": {},
    "can_expand": true,
    "junctions": {
        "414e8cb9-820e-4f04-bde9-ab734047f2bd": {
            "position": [
                -8750000,
                -12500000
            ]
        },
        "767c51e0-b99a-47b5-bc99-26bdb2508c16": {
            "position": [
                -8750000,
                12500000
            ]
        },
        "7ed6e87a-3dd4-47a6-b03f-2003d7a893ed": {
            "position": [
                8750000,
                -12500000
            ]
        },
        "b6b1c6fa-8b08-429e-81fc-f07746709b9a": {
            "position": [
                8750000,
                12500000
            ]
        }
    },
    "lines": {
        "002ab16d-b5f7-4fa7-8cdd-8b58d5d09cc4": {
            "from": "767c51e0-b99a-47b5-bc99-26bdb2508c16",
            "layer": 0,
            "to": "414e8cb9-820e-4f04-bde9-ab734047f2bd",
            "width": 0
        },
        "1480b9dd-449e-4a73-ac63-34d89710d024": {
            "from": "b6b1c6fa-8b08-429e-81fc-f07746709b9a",
            "layer": 0,
            "to": "767c51e0-b99a-47b5-bc99-26bdb2508c16",
            "width": 0
        },
        "4497fac0-a044-41be-9f4b-e2756644e372": {
            "from": "7ed6e87a-3dd4-47a6-b03f-2003d7a893ed",
            "layer": 0,
            "to": "b6b1c6fa-8b08-429e-81fc-f07746709b9a",
            "width": 0
        },
        "9c4c12c9-c1ad-4a89-9939-afe3fe8947fe": {
            "from": "414e8cb9-820e-4f04-bde9-ab734047f2bd",
            "layer": 0,
            "to": "7ed6e87a-3dd4-47a6-b03f-2003d7a893ed",
            "width": 0
        }
    },
    "name": "PIC16F88",
    "pins": {
        "0dd63c2f-952e-4242-9d4e-d9b030c52f38": {
            "decoration": {
                "clock": false,
                "dot": false,
                "driver": "default",
                "schmitt": false
            },
            "length": 2500000,
            "name_orientation": "in_line",
            "name_visible": true,
            "orientation": "left",
            "pad_visible": true,
            "position": [
                -11250000,
                0
            ]
        },
        "125fbedf-d945-4a3c-ba47-48468128645d": {
            "decoration": {
                "clock": false,
                "dot": false,
                "driver": "default",
                "schmitt": false
            },
            "length": 2500000,
            "name_orientation": "in_line",
            "name_visible": true,
            "orientation": "right",
            "pad_visible": true,
            "position": [
                11250000,
                -5000000
            ]
        },
        "1a853963-43a6-47a8-8c12-da6a4444fa60": {
            "decoration": {
                "clock": false,
                "dot": false,
                "driver": "default",
                "schmitt": false
            },
            "length": 2500000,
            "name_orientation": "in_line",
            "name_visible": true,
            "orientation": "left",
            "pad_visible": true,
            "position": [
                -11250000,
                -2500000
            ]
        },
        "29288f44-790b-4753-9783-81fc21de5d15": {
            "decoration": {
                "clock": false,
                "dot": false,
                "driver": "default",
                "schmitt": false
            },
            "length": 2500000,
            "name_orientation": "in_line",
            "name_visible": true,
            "orientation": "right",
            "pad_visible": true,
            "position": [
                11250000,
                2500000
            ]
        },
        "3e17db19-17ba-4bd1-bb61-818589d45dd5": {
            "decoration": {
                "clock": false,
                "dot": false,
                "driver": "default",
                "schmitt": false
            },
            "length": 2500000,
            "name_orientation": "horizontal",
            "name_visible": true,
            "orientation": "down",
            "pad_visible": true,
            "position": [
                0,
                -15000000
            ]
        },
        "45f652d8-7183-4c4d-b2cb-8d06039de3cd": {
            "decoration": {
                "clock": false,
                "dot": false,
                "driver": "default",
                "schmitt": false
            },
            "length": 2500000,
            "name_orientation": "in_line",
            "name_visible": true,
            "orientation": "right",
            "pad_visible": true,
            "position": [
                11250000,
                7500000
            ]
        },
        "58d03465-4f7a-45f3-9476-17bc1ea2ac71": {
            "decoration": {
                "clock": false,
                "dot": false,
                "driver": "default",
                "schmitt": false
            },
            "length": 2500000,
            "name_orientation": "in_line",
            "name_visible": true,
            "orientation": "right",
            "pad_visible": true,
            "position": [
                11250000,
                -2500000
            ]
        },
        "68c29839-e61b-4c4e-bebd-c019e9d54611": {
            "decoration": {
                "clock": false,
                "dot": false,
                "driver": "default",
                "schmitt": false
            },
            "length": 2500000,
            "name_orientation": "horizontal",
            "name_visible": true,
            "orientation": "up",
            "pad_visible": true,
            "position": [
                0,
                15000000
            ]
        },
        "718b18ad-3862-4829-84a4-9fe0ba6a2916": {
            "decoration": {
                "clock": false,
                "dot": false,
                "driver": "default",
                "schmitt": false
            },
            "length": 2500000,
            "name_orientation": "in_line",
            "name_visible": true,
            "orientation": "left",
            "pad_visible": true,
            "position": [
                -11250000,
                10000000
            ]
        },
        "7ba0c909-e11d-469f-b929-db097a1c753d": {
            "decoration": {
                "clock": false,
                "dot": false,
                "driver": "default",
                "schmitt": false
            },
            "length": 2500000,
            "name_orientation": "in_line",
            "name_visible": true,
            "orientation": "left",
            "pad_visible": true,
            "position": [
                -11250000,
                2500000
            ]
        },
        "8ccedc4d-de84-48eb-b0a6-6cf0af0a6ddc": {
            "decoration": {
                "clock": false,
                "dot": false,
                "driver": "default",
                "schmitt": false
            },
            "length": 2500000,
            "name_orientation": "in_line",
            "name_visible": true,
            "orientation": "left",
            "pad_visible": true,
            "position": [
                -11250000,
                -7500000
            ]
        },
        "a4f3c347-798b-4f33-bd2c-4cc53c949266": {
            "decoration": {
                "clock": false,
                "dot": false,
                "driver": "default",
                "schmitt": false
            },
            "length": 2500000,
            "name_orientation": "in_line",
            "name_visible": true,
            "orientation": "right",
            "pad_visible": true,
            "position": [
                11250000,
                -7500000
            ]
        },
        "b0f172a8-fefe-4665-b425-689fb34f5b2d": {
            "decoration": {
                "clock": false,
                "dot": false,
                "driver": "default",
                "schmitt": false
            },
            "length": 2500000,
            "name_orientation": "in_line",
            "name_visible": true,
            "orientation": "left",
            "pad_visible": true,
            "position": [
                -11250000,
                7500000
            ]
        },
        "b4d1f5a0-d90f-4c63-a2eb-088636aee114": {
            "decoration": {
                "clock": false,
                "dot": false,
                "driver": "default",
                "schmitt": false
            },
            "length": 2500000,
            "name_orientation": "in_line",
            "name_visible": true,
            "orientation": "right",
            "pad_visible": true,
            "position": [
                11250000,
                10000000
            ]
        },
        "c45c987c-6705-4eec-b446-6eb1f7c48331": {
            "decoration": {
                "clock": false,
                "dot": false,
                "driver": "default",
                "schmitt": false
            },
            "length": 2500000,
            "name_orientation": "in_line",
            "name_visible": true,
            "orientation": "left",
            "pad_visible": true,
            "position": [
                -11250000,
                -5000000
            ]
        },
        "d0e39f27-0b69-421c-81b6-411e627e23da": {
            "decoration": {
                "clock": false,
                "dot": false,
                "driver": "default",
                "schmitt": false
            },
            "length": 2500000,
            "name_orientation": "in_line",
            "name_visible": true,
            "orientation": "left",
            "pad_visible": true,
            "position": [
                -11250000,
                5000000
            ]
        },
        "dc47ff2b-cfc7-4919-b16f-28a946bca235": {
            "decoration": {
                "clock": false,
                "dot": false,
                "driver": "default",
                "schmitt": false
            },
            "length": 2500000,
            "name_orientation": "in_line",
            "name_visible": true,
            "orientation": "right",
            "pad_visible": true,
            "position": [
                11250000,
                5000000
            ]
        },
        "fd3afbb1-458a-4143-b485-e25a2b9b1a7d": {
            "decoration": {
                "clock": false,
                "dot": false,
                "driver": "default",
                "schmitt": false
            },
            "length": 2500000,
            "name_orientation": "in_line",
            "name_visible": true,
            "orientation": "right",
            "pad_visible": true,
            "position": [
                11250000,
                0
            ]
        }
    },
    "polygons": {},
    "text_placements": {},
    "texts": {
        "37db3e31-202b-4709-97b7-21438a0e7c36": {
            "font": "simplex",
            "from_smash": false,
            "layer": 0,
            "origin": "center",
            "placement": {
                "angle": 0,
                "mirror": false,
                "shift": [
                    5000000,
                    -13750000
                ]
            },
            "size": 1500000,
            "text": "$VALUE",
            "width": 0
        },
        "e0abf7b2-3e77-4b41-82bd-8ad6965120ed": {
            "font": "simplex",
            "from_smash": false,
            "layer": 0,
            "origin": "center",
            "placement": {
                "angle": 0,
                "mirror": false,
                "shift": [
                    3750000,
                    13750000
                ]
            },
            "size": 1500000,
            "text": "$REFDES",
            "width": 0
        }
    },
    "type": "symbol",
    "unit": "bafd7606-23f1-47f2-b8df-f1717f402d5e",
    "uuid": "d9305fea-a088-4012-a88b-10be32cfd6b7"
}