{
    "MPN": [
        false,
        "12061C225KAT2A"
    ],
    "datasheet": [
        false,
        "https://datasheets.kyocera-avx.com/X7RDielectric.pdf"
    ],
    "description": [
        false,
        "CAP CER 2.2UF 100V X7R 1206"
    ],
    "entity": "ca83a84f-6183-4088-84b6-5d79b2a119d4",
    "inherit_model": false,
    "inherit_tags": false,
    "manufacturer": [
        false,
        "Kyocera Avx"
    ],
    "model": "96c366ee-a963-41a0-9cc8-54c646979695",
    "orderable_MPNs": {
        "01726845-b754-4214-89bd-8e208431e907": "12061C225KAT2A"
    },
    "package": "965e812c-7750-4e7d-ac60-8c38102fcec9",
    "pad_map": {
        "af633f04-39de-4605-b33a-2010e8795070": {
            "gate": "9bfcf213-2a7e-444e-8312-ce57209fc9ec",
            "pin": "852f1fe6-06dc-4661-8a14-61a9a6ebb26a"
        },
        "dea5a138-9f86-4a13-a99d-2c1253f285f2": {
            "gate": "9bfcf213-2a7e-444e-8312-ce57209fc9ec",
            "pin": "29995253-b4b1-4c7c-a049-b6db2713ca7c"
        }
    },
    "parametric": {
        "table": "capacitors",
        "tolerance": "10",
        "type": "X7R",
        "value": "2.2e-06",
        "wvdc": "100"
    },
    "tags": [
        "capacitor",
        "passive",
        "smd"
    ],
    "type": "part",
    "uuid": "ded059ec-8e7d-4751-8c02-1e5db1568e93",
    "value": [
        false,
        "2.2 uF"
    ]
}