{
    "gates": {
        "c3504ee4-86c9-4151-ad0d-66f5138fe45a": {
            "name": "Main",
            "suffix": "",
            "swap_group": 0,
            "unit": "f42e6cc7-5f94-43cb-88c7-fb9fc9a56033"
        }
    },
    "manufacturer": "FTDI",
    "name": "FT231X",
    "prefix": "U",
    "tags": [
        "ic",
        "uart",
        "usb"
    ],
    "type": "entity",
    "uuid": "9ad2b5bf-cb9f-4fc2-a59e-092db5db0122"
}