{
    "MPN": [
        false,
        "7113-0-00-15-00-00-03-0"
    ],
    "datasheet": [
        false,
        "https://www.mill-max.com/assets/pdfs/205.pdf"
    ],
    "description": [
        false,
        "PC PIN CIRCULAR 0.46MM DIA"
    ],
    "entity": "267343bf-e6bf-42f4-b256-381dd96f011d",
    "inherit_model": false,
    "inherit_tags": false,
    "manufacturer": [
        false,
        "Mill-Max"
    ],
    "model": "00000000-0000-0000-0000-000000000000",
    "orderable_MPNs": {
        "d6e3197e-38f4-4ff9-9245-114285708606": "7113-0-00-15-00-00-03-0"
    },
    "package": "8b48567e-11f2-4d6b-a8eb-459d6d0aa8a3",
    "pad_map": {
        "3bf25945-67e0-4ae7-92d3-ff7c8ae68c72": {
            "gate": "26c95be6-8813-4f4b-a0e6-574ae9a6ae48",
            "pin": "ad3f20fe-d1ca-40c1-9148-71c107694c90"
        }
    },
    "parametric": {},
    "tags": [
        "connector"
    ],
    "type": "part",
    "uuid": "1858efab-09b1-4a0b-8b49-2d7d8d6b9ddd",
    "value": [
        false,
        ""
    ]
}