{
    "MPN": [
        false,
        "MAX5033BUSA"
    ],
    "base": "e7cdeca5-b5b6-4d72-9e5c-763e9bac3699",
    "datasheet": [
        true,
        "https://datasheets.maximintegrated.com/en/ds/MAX5033.pdf"
    ],
    "description": [
        false,
        "5V, 500mA, 76V input, High-Efficiency, Buck DC-DC Converter"
    ],
    "inherit_model": true,
    "inherit_tags": true,
    "manufacturer": [
        true,
        "Maxim"
    ],
    "model": "b99785a3-c0da-4658-969d-6287cec3be05",
    "orderable_MPNs": {
        "2c87f729-1a6c-4c66-bdf2-a17b8a438ad6": "MAX5033BUSA+",
        "552eff3c-891b-488f-922c-ec21a012745e": "MAX5033BASA+"
    },
    "parametric": {},
    "tags": [],
    "type": "part",
    "uuid": "b0dedf0d-5c8b-48e1-84ac-f9bffafc5a15",
    "value": [
        true,
        "MAX5033-Base"
    ]
}