{
    "MPN": [
        false,
        "MIC5283"
    ],
    "datasheet": [
        false,
        "https://ww1.microchip.com/downloads/en/DeviceDoc/MIC5283.pdf"
    ],
    "description": [
        false,
        "120VIN, 150mA, Ultra-Low IQ, High-PSRR Linear Regulator"
    ],
    "entity": "90acf593-b19a-4e04-b37d-bc6f28c0857f",
    "inherit_model": false,
    "inherit_tags": false,
    "manufacturer": [
        false,
        "Microchip"
    ],
    "model": "b99785a3-c0da-4658-969d-6287cec3be05",
    "orderable_MPNs": {
        "3204ff6d-32c3-49cd-94e6-39c5b90bcf39": "MIC5283-5.0YME"
    },
    "package": "179533a4-fc23-4300-aee6-a6a6a9f697dd",
    "pad_map": {
        "1a952c32-f098-49df-bfa4-c621ca96939a": {
            "gate": "8489cf5c-aa8f-43f3-a134-4294e2c36f83",
            "pin": "06ae8190-22d2-4148-9e21-b6a257d8a6ab"
        },
        "29f18ab8-6cea-44fc-9bf5-4fb888f5245b": {
            "gate": "8489cf5c-aa8f-43f3-a134-4294e2c36f83",
            "pin": "96300d1c-3d50-4830-b1fe-9036a4c5b253"
        },
        "51d7c05f-acae-46d5-9c26-2ea9d17bf7a8": {
            "gate": "8489cf5c-aa8f-43f3-a134-4294e2c36f83",
            "pin": "f1accc24-db25-430c-ab9d-46c5d2c28ba5"
        },
        "6f82c7c4-9578-4cb0-a92c-8b09534d5dc9": {
            "gate": "8489cf5c-aa8f-43f3-a134-4294e2c36f83",
            "pin": "708a0783-1782-4387-a68c-2aa9a69589d3"
        },
        "82d773fb-4473-4bd9-a879-a6ca2756055c": {
            "gate": "8489cf5c-aa8f-43f3-a134-4294e2c36f83",
            "pin": "69c763ee-06e6-4f8a-b4d4-79eaa79771ca"
        },
        "b9ad4acf-f78d-438d-8b7b-e83ee0f9cc19": {
            "gate": "8489cf5c-aa8f-43f3-a134-4294e2c36f83",
            "pin": "f7a87f89-a7fa-4c1f-8bed-cc10cdcaae1a"
        }
    },
    "parametric": {},
    "tags": [
        "ic",
        "regulator"
    ],
    "type": "part",
    "uuid": "daf3dd6c-b81c-4512-8f2f-b6098d89b20b",
    "value": [
        false,
        ""
    ]
}