{
    "MPN": [
        false,
        "PMST3906,115"
    ],
    "base": "25dd9b9c-4f87-40f7-8ed5-dd2addfdd376",
    "datasheet": [
        false,
        "https://assets.nexperia.com/documents/data-sheet/PMST3906.pdf"
    ],
    "description": [
        true,
        "PNP 40V SMALL SIGNAL TRANSISTOR"
    ],
    "inherit_model": true,
    "inherit_tags": true,
    "manufacturer": [
        false,
        "Nexperia"
    ],
    "model": "4827c055-903e-4c48-a27b-167101c52549",
    "orderable_MPNs": {
        "5e5ccf23-4bc6-45c7-955e-f9b3b275b9dd": "PMST3906,115"
    },
    "parametric": {},
    "tags": [],
    "type": "part",
    "uuid": "1edfdc5d-d287-4219-9ca3-69ffa90a2276",
    "value": [
        true,
        "MMST3906"
    ]
}