{
    "gates": {
        "3822a334-050c-4c34-b207-df2c243311ee": {
            "name": "Main",
            "suffix": "",
            "swap_group": 0,
            "unit": "023332a4-1522-4314-83f8-03e873a348a7"
        }
    },
    "manufacturer": "Maxim",
    "name": "MAX5024",
    "prefix": "U",
    "tags": [
        "ic",
        "regulator"
    ],
    "type": "entity",
    "uuid": "622b1667-cebf-4bb5-b236-9bc912b1366d"
}