{
    "MPN": [
        false,
        "TSW-105-22-G-S-RA"
    ],
    "datasheet": [
        false,
        "http://suddendocs.samtec.com/catalog_english/tsw_th.pdf"
    ],
    "description": [
        false,
        "1 x 5 Connector Header Through Hole, Right Angle 5 position 0.100\" (2.54mm)"
    ],
    "entity": "7df8761c-9867-4b43-b018-5f5c3bfd0e6a",
    "inherit_model": false,
    "inherit_tags": false,
    "manufacturer": [
        false,
        "Samtec"
    ],
    "model": "84ec8229-d872-42f8-bfcc-96938ff02bd1",
    "orderable_MPNs": {
        "d5ac9ee3-216c-41bc-b0dc-f2a1b97b8561": "TSW-105-22-G-S-RA"
    },
    "package": "0931f92a-34e2-405b-b67a-49ab17a7a689",
    "pad_map": {
        "37ad2e38-76ac-4a0b-adf3-2500e30336a0": {
            "gate": "fdf2cef9-c614-4909-a559-883ba8cf8cbb",
            "pin": "c55a5926-9adb-4da9-914f-ecbe44911478"
        },
        "7bc2147a-0234-41f6-ab65-444e57a43ce5": {
            "gate": "fdf2cef9-c614-4909-a559-883ba8cf8cbb",
            "pin": "c28d4a18-905d-497d-8f4b-18b376769929"
        },
        "7de8ad61-d839-4bad-85e8-5b3d093d4d6c": {
            "gate": "fdf2cef9-c614-4909-a559-883ba8cf8cbb",
            "pin": "9fb34e7c-856b-4413-8d12-28af8cc54529"
        },
        "a43c1c45-4e2c-4164-990b-5719d05d21b4": {
            "gate": "fdf2cef9-c614-4909-a559-883ba8cf8cbb",
            "pin": "79dc1645-1dd2-4d10-a12a-ac4426be1ee7"
        },
        "f4f2991b-d46c-492e-b2b6-beacc3120e00": {
            "gate": "fdf2cef9-c614-4909-a559-883ba8cf8cbb",
            "pin": "b44c4791-5509-4fda-b027-ac181543a68a"
        }
    },
    "parametric": {},
    "tags": [
        "connector",
        "header"
    ],
    "type": "part",
    "uuid": "035f4456-f9f2-4a22-ac0a-d4f139c0a053",
    "value": [
        false,
        ""
    ]
}