{
    "manufacturer": "",
    "name": "3-Way Jumper",
    "pins": {
        "1aa8cc84-506d-4594-995a-677144b2b7b2": {
            "direction": "passive",
            "names": [],
            "primary_name": "3",
            "swap_group": 0
        },
        "5cee4d8c-92bf-4b80-a670-19c3113df45e": {
            "direction": "passive",
            "names": [
                "COMMON"
            ],
            "primary_name": "2",
            "swap_group": 0
        },
        "fa7f7ec6-165f-4938-bedc-d15831f46374": {
            "direction": "passive",
            "names": [],
            "primary_name": "1",
            "swap_group": 0
        }
    },
    "type": "unit",
    "uuid": "f9772b86-b20f-4bb1-b5b7-cf10aaa8bdf1"
}